oPK067,TACGGYTACCTTGTTACGACTT
oRM017,acactctttccctacacgacgctcttccgatctAACGCGAAGAACCTTAC
sH1,TCTTTCCCCACAATCATACT
sH2,CGTGATGAATATCGAACAGA
sH3,GCTGGTGGCACTTTACTTAC
sH4,TTGCTGGTGTTGTCTCAATA
sH5,GTGTGTAGCCATTTTGGTTT
sH6,TCTCGGGACACTAACTGAAT
sH7,CTAGTTAGGATGGGGGACAT
sH8,CTCCCTTGCAACAAGTAAAC
sR1,CGTCTACCTCAAGGTCTTCC
sR2,GGTCAATGACTCAGACTTCC
sR3,GTCCTCTTCTCCTTCATCGT
sR4,GTAGTGAAGTTCGGCACACT
sR5,GTTGCCTTGACCACTTTTC
sR6,TCATCTTCTCCAGGTCTTTG
sM1,CAGAAAGCTAATTCATCTGGA
sM2,AATCCACTTCCTCAGCATC
sK1,AAAATTCATCCTGAAAGTGA
sK2,AAAGCTAGTGGTTCAGAGTTC
sK3,CAAAAGGAGATCTGTGAGAA
sK4,TCCATTTATCTCCTCAACAA
sK5,CGTTTCCTTTAACCACATAA
sJ1,TCCTCTTCTTGATGACTTTG
sJ2,TGAAGAAAGCAGGTAATCAG
sJ3,TGCCAAAAATATTCTGCTTA
sJ4,TGATTTATCTTTTGGCTTTG
sJ5,GCTGATGCCTATCTTCATAA
sJ6,CATACAGAACCACTCCAAAG
sF1,CACAGAAAAGATGGAAAAGC
sF2,ACAAGCTGACCAAACGTATC
sF3,CGTGTTGTTATCCTCACCA
sF4,CCAAGTCTTCTACCAACTGC
sPegHAF,TAGCATGGCCTTTGCAGGGCT
sPegHAR,GCTCCCGGCATCCGCTTACAGA
